{
  "count": 85,
  "next": "https://api.rawg.io/api/developers?key=9579770cd9174df481ee1cd3c42d4b08&page=2&page_size=10&search=Ubisoft",
  "previous": null,
  "results": [
    {
      "text": null,
      "name": "Ubisoft",
      "exact_name": "ubisoft",
      "search_name": "ubisoft",
      "slug": "ubisoft",
      "top_games": [
        4161,
        362,
        3687,
        3771,
        3757,
        2728,
        3497,
        8488,
        28153,
        8146,
        23585,
        10061,
        3647,
        1758,
        4676,
        19375,
        58616,
        19600,
        4361,
        4013,
        715,
        3726,
        4744,
        2659,
        3189,
        2767,
        10125,
        19560,
        29,
        13909
      ],
      "games_count": 295,
      "image_background": "https://media.rawg.io/media/games/f80/f805774c679cca1a1a472d9ac39c78b7.jpg",
      "id": 405,
      "score": "65.71709"
    },
    {
      "text": null,
      "name": "Ubisoft Romania",
      "exact_name": "ubisoft romania",
      "search_name": "ubisoft romania",
      "slug": "ubisoft-romania",
      "top_games": [
        19661,
        28759,
        18103,
        18104,
        28875,
        53186,
        42016,
        26817
      ],
      "games_count": 8,
      "image_background": "https://media.rawg.io/media/screenshots/733/7334c4ffb1885ac58853d141b36db210.jpg",
      "id": 10402,
      "score": "31.282696"
    },
    {
      "text": null,
      "name": "Ubisoft Milan",
      "exact_name": "ubisoft milan",
      "search_name": "ubisoft milan",
      "slug": "ubisoft-milan",
      "top_games": [
        10125,
        55984,
        4493,
        3801,
        29185,
        35326,
        35284,
        5463,
        36790,
        46868,
        29056,
        31690,
        34659,
        40789
      ],
      "games_count": 14,
      "image_background": "https://media.rawg.io/media/games/72e/72e0e063c817e90c696b2da3ea78abaa.jpg",
      "id": 4114,
      "score": "31.282696"
    },
    {
      "text": null,
      "name": "Ubisoft Berlin",
      "exact_name": "ubisoft berlin",
      "search_name": "ubisoft berlin",
      "slug": "ubisoft-berlin",
      "top_games": [],
      "games_count": 0,
      "image_background": null,
      "id": 440959,
      "score": "31.282696"
    },
    {
      "text": null,
      "name": "Ubisoft Barcelona",
      "exact_name": "ubisoft barcelona",
      "search_name": "ubisoft barcelona",
      "slug": "ubisoft-barcelona",
      "top_games": [
        304953,
        336011,
        26204
      ],
      "games_count": 3,
      "image_background": "https://media.rawg.io/media/screenshots/d40/d405e7a46470ea5c63a3c5078b349a4e.jpg",
      "id": 28334,
      "score": "31.158005"
    },
    {
      "text": null,
      "name": "Ubisoft Paris",
      "exact_name": "ubisoft paris",
      "search_name": "ubisoft paris",
      "slug": "ubisoft-paris",
      "top_games": [
        10125,
        4345,
        29185,
        956,
        36777,
        3847,
        3538,
        3117,
        46893,
        238395,
        4350,
        4124,
        34668,
        5463,
        46868,
        285650,
        28465,
        41949,
        27195,
        41633,
        41950,
        53245
      ],
      "games_count": 22,
      "image_background": "https://media.rawg.io/media/screenshots/2a4/2a412f2a0a14f76004d1e2574bcd5a50.jpg",
      "id": 4110,
      "score": "31.158005"
    },
    {
      "text": null,
      "name": "Ubisoft Bucharest",
      "exact_name": "ubisoft bucharest",
      "search_name": "ubisoft bucharest",
      "slug": "ubisoft-bucharest",
      "top_games": [
        3841,
        58616,
        10125,
        38298,
        40205,
        5463,
        46868,
        24890,
        53186,
        37620,
        35730,
        38356
      ],
      "games_count": 12,
      "image_background": "https://media.rawg.io/media/screenshots/82a/82a48dd31edb46b59866c0f9feda6d8b.jpg",
      "id": 4112,
      "score": "31.158005"
    },
    {
      "text": null,
      "name": "Ubisoft Toronto",
      "exact_name": "ubisoft toronto",
      "search_name": "ubisoft toronto",
      "slug": "ubisoft-toronto",
      "top_games": [
        362,
        3841,
        8146,
        23585,
        3933,
        19646,
        58849,
        336335
      ],
      "games_count": 8,
      "image_background": "https://media.rawg.io/media/games/de9/de93cd3e51d2c57e33bbf7dade34f25a.jpg",
      "id": 4415,
      "score": "31.158005"
    },
    {
      "text": null,
      "name": "Ubisoft Sofia",
      "exact_name": "ubisoft sofia",
      "search_name": "ubisoft sofia",
      "slug": "ubisoft-sofia",
      "top_games": [
        17545,
        4209,
        3801,
        19672,
        5463,
        24174
      ],
      "games_count": 6,
      "image_background": "https://media.rawg.io/media/screenshots/70c/70c481150dad10deb3e9afadf9fe7381.jpeg",
      "id": 10004,
      "score": "31.158005"
    },
    {
      "text": null,
      "name": "Ubisoft Vancouver",
      "exact_name": "ubisoft vancouver",
      "search_name": "ubisoft vancouver",
      "slug": "ubisoft-vancouver",
      "top_games": [
        40094,
        40942,
        24542
      ],
      "games_count": 3,
      "image_background": "https://media.rawg.io/media/screenshots/fea/fead6ab79fe27580297b504f9c22ae3f.jpg",
      "id": 18878,
      "score": "31.158005"
    }
  ]
}